<gateway compatibility="1" xmlns:xsi="http://www.w3.org/2001/XMLSchema-instance" xsi:noNamespaceSchemaLocation="http://schema.itrsgroup.com/GA4.1.0-170114/gateway.xsd">
    <samplers>
        <sampler name="Ports Development">
            <description></description>
            <plugin>
                <tcp-links>
                    <localPorts>
                        <port>
                            <data>8443</data>
                        </port>
                        <port>
                            <data>5000</data>
                        </port>
                        <port>
                            <data>9200</data>
                        </port>
                        <port>
                            <data>22</data>
                        </port>
                    </localPorts>
                </tcp-links>
            </plugin>
        </sampler>
        <sampler name="Ports Docker Reg">
            <plugin>
                <tcp-links>
                    <localPorts>
                        <port>
                            <data>5000</data>
                        </port>
                        <port>
                            <data>22</data>
                        </port>
                    </localPorts>
                </tcp-links>
            </plugin>
        </sampler>
        <sampler name="Ports ELK">
            <plugin>
                <tcp-links>
                    <localPorts>
                        <port>
                            <data>9200</data>
                        </port>
                        <port>
                            <data>5601</data>
                        </port>
                        <port>
                            <data>22</data>
                        </port>
                    </localPorts>
                </tcp-links>
            </plugin>
        </sampler>
        <sampler name="Ports UAT">
            <plugin>
                <tcp-links>
                    <localPorts>
                        <port>
                            <data>22</data>
                        </port>
                        <port>
                            <data>9200</data>
                        </port>
                        <port>
                            <data>7916</data>
                        </port>
                        <port>
                            <data>8443</data>
                        </port>
                    </localPorts>
                </tcp-links>
            </plugin>
        </sampler>
        <sampler name="Ports Prod">
            <plugin>
                <tcp-links>
                    <localPorts>
                        <port>
                            <data>9200</data>
                        </port>
                        <port>
                            <data>7916</data>
                        </port>
                        <port>
                            <data>8993</data>
                        </port>
                        <port>
                            <data>22</data>
                        </port>
                    </localPorts>
                </tcp-links>
            </plugin>
        </sampler>
        <sampler name="Ports Deployment">
            <plugin>
                <tcp-links>
                    <localPorts>
                        <port>
                            <data>22</data>
                        </port>
                        <port>
                            <data>9200</data>
                        </port>
                        <port>
                            <data>7918</data>
                        </port>
                        <port>
                            <data>8080</data>
                        </port>
                    </localPorts>
                </tcp-links>
            </plugin>
        </sampler>
    </samplers>
</gateway>